{
  "files": {
    "main.css": "/static/css/main.139361d5.chunk.css",
    "main.js": "/static/js/main.a95cc806.chunk.js",
    "main.js.map": "/static/js/main.a95cc806.chunk.js.map",
    "runtime-main.js": "/static/js/runtime-main.69c628e3.js",
    "runtime-main.js.map": "/static/js/runtime-main.69c628e3.js.map",
    "static/css/2.bd9a6a05.chunk.css": "/static/css/2.bd9a6a05.chunk.css",
    "static/js/2.76b1c4d3.chunk.js": "/static/js/2.76b1c4d3.chunk.js",
    "static/js/2.76b1c4d3.chunk.js.map": "/static/js/2.76b1c4d3.chunk.js.map",
    "static/js/3.d885b731.chunk.js": "/static/js/3.d885b731.chunk.js",
    "static/js/3.d885b731.chunk.js.map": "/static/js/3.d885b731.chunk.js.map",
    "index.html": "/index.html",
    "static/css/2.bd9a6a05.chunk.css.map": "/static/css/2.bd9a6a05.chunk.css.map",
    "static/css/main.139361d5.chunk.css.map": "/static/css/main.139361d5.chunk.css.map",
    "static/js/2.76b1c4d3.chunk.js.LICENSE.txt": "/static/js/2.76b1c4d3.chunk.js.LICENSE.txt",
    "static/media/logo.6ce24c58.svg": "/static/media/logo.6ce24c58.svg"
  },
  "entrypoints": [
    "static/js/runtime-main.69c628e3.js",
    "static/css/2.bd9a6a05.chunk.css",
    "static/js/2.76b1c4d3.chunk.js",
    "static/css/main.139361d5.chunk.css",
    "static/js/main.a95cc806.chunk.js"
  ]
}